434985 646778
68708 660753
775170 840498
618768 582143
956429 589078
167066 652902
941035 846023
179199 780695
771654 586667
846113 217754
887951 583604
659589 178922
983133 277549
4913 787364
145307 818218
138515 663579
436528 833335
140694 357737
259333 945675
316783 629526
976114 961427
763443 61616
757905 636899
268341 107443
854134 437770
564125 920931
47668 279096
617697 639225
706027 224170
932533 728403
270014 65827
105365 693979
510375 676944
797548 954660
727738 313732
621150 478828
432949 463225
478393 723020
856273 39554
717040 461469
432183 188926
634289 718564
928279 813366
779371 633555
646580 456639
469866 92388
431827 747127
214836 386978
732853 538669
419645 910797
498251 297302
321932 403257
684374 271758
408862 872215
113678 844278
914865 114079
467455 261591
574646 57782
939653 483391
817137 308608
191803 512716
770863 444251
797248 915897
886282 885828
990471 368063
418816 246409
149086 820383
102660 408777
855344 820829
150600 187521
772241 970538
19678 452068
147120 433051
160891 443076
494088 300815
113874 506638
487504 248153
782158 287500
132615 107145
282530 379915
907684 674430
219101 164244
926071 276177
729710 854613
356710 430197
448818 345270
335043 755320
305462 967458
761029 505736
170994 728491
964683 310511
98767 409917
879908 384429
976774 457290
84411 218462
852808 364648
244273 335947
38104 71500
680776 922423
707521 333413
838085 119378
802223 587971
331483 18158
212681 656300
923864 936343
391397 611969
477471 109773
884524 765188
940998 162528
538331 689542
329238 539296
218632 27187
761416 251165
651144 669136
662735 396863
553745 656353
51885 142016
706078 304662
875457 622160
479361 484402
972581 404950
141529 655867
260100 555520
64325 283224
554715 517929
203349 502037
137817 283880
548778 988606
929932 105681
978809 511287
387622 234246
742016 21577
46182 424558
864924 247067
120224 527729
632705 616512
92475 522514
901152 926353
301917 89393
598168 996433
15672 983165
889724 62912
27200 869757
357199 291856
106248 606609
66213 699672
945028 117500
234090 928208
295863 912246
914580 348211
395046 515522
545735 94270
409996 692002
917580 936283
890007 94421
533522 458816
731783 31018
730798 464364
858729 148052
949432 23641
475876 820279
731434 456769
779465 52442
731962 122469
476692 251723
621643 695578
947339 85198
420096 83693
695574 960341
756781 9020
61691 823631
43026 689437
600583 504718
429835 613161
932522 186142
658439 370413
549797 334228
719294 698786
538421 110475
961976 408288
639404 641448
318983 454440
239096 816975
860464 488247
741860 922711
923750 682352
72801 247652
104305 294814
817454 368815
812095 344122
831765 786525
667309 125247
130183 720450
544262 682241
703847 359003
467613 626274
104061 390369
820440 604844
352946 996474
443303 718981
249132 993955
748155 559381
970073 246370
642187 497343
365804 455948
746597 560556
198738 656470
188889 961139
228436 292822
100985 726944
891817 908575
798398 985774
2255 356052
851908 124039
52960 185442
142841 426433
423293 988360
190154 141239
452145 693695
339661 522686
151626 333871
836930 944203
