401457 967966
855964 397020
537888 180546
923405 526684
670382 445499
800035 560030
643454 951863
238602 286132
984821 99789
916790 159230
779513 360099
910605 258488
987077 755354
181961 147702
447367 379649
310921 956856
89535 478969
37840 966065
667431 347526
154948 854421
786162 178465
284751 689784
64719 983049
548515 488783
698051 866406
235676 920025
325639 432855
633495 329416
858408 84590
459650 264142
187543 98527
894363 325217
686539 721916
941786 596099
527724 721648
961510 369457
865674 111322
804503 43725
947196 673410
966361 181631
52855 819103
700370 313513
222307 644780
599089 943738
504215 198993
275912 196201
975345 605985
651711 75289
581347 94117
7811 961223
307184 455326
157307 46007
951601 183420
35465 301756
181894 747770
127343 319168
31108 14822
734518 56988
65814 128487
18497 852362
55474 514344
26528 527362
842377 252780
716629 308588
86296 143794
605504 378080
148346 897147
667503 329505
8506 536614
328736 190392
405658 508050
281654 121779
947298 155346
387598 169042
625452 2734
747681 279892
659184 852158
426138 589307
860053 309578
318800 238753
730085 129225
582433 965696
192188 983144
910607 662495
120768 173845
577791 212608
354650 110962
826533 430328
172274 498374
814339 821928
36851 663769
770008 769157
960562 371752
763527 760166
490506 224139
405386 989531
221955 743603
527721 352739
852891 123585
74238 829739
516857 779399
635617 883683
239471 192708
523670 819479
82147 343422
712380 544321
327727 212636
926774 133009
56172 831977
540207 515111
787698 243456
334580 642355
677929 731669
420726 169795
449401 131258
31865 85794
644016 511924
881971 783249
11623 667216
204603 619131
743329 95315
524112 64561
393806 820025
818755 919788
218006 515492
755195 903001
386995 113184
929289 735670
663588 979054
621085 727535
25048 536716
241764 52067
554638 728398
825368 703159
664551 796154
72867 890778
24929 616941
210066 927584
746937 47387
327494 420365
229855 65677
543296 867466
475396 90800
940910 124037
843502 596311
323589 178289
295474 401811
709094 764349
177049 245222
146935 26278
134040 66507
259343 934930
876459 472535
117481 350671
957655 294043
401302 581535
506810 911648
762876 338366
582569 1925
188869 654055
182566 430964
806106 814595
346212 7898
270627 84073
707532 232579
757163 293857
733372 198330
717144 812910
975981 33511
216690 168723
929993 514883
852729 61628
988846 528823
247361 264689
305193 223043
772690 418456
709623 291782
720748 441171
948829 897292
440682 993238
432732 605194
191267 967887
946250 659181
513213 533234
656209 607145
885037 107666
450670 838671
174238 30219
981360 841155
315523 593612
180705 178937
664258 286615
209534 543625
906779 925272
117765 627511
146357 16724
444301 815042
868964 812641
301790 931270
27404 811215
548989 376903
42498 479206
491453 267115
293251 133945
410307 262953
328348 771165
124150 634308
774035 758566
320296 606432
39940 920014
235537 934680
678531 512673
598045 254078
920168 235094
425584 10179
908729 285947
36268 90778
336706 777865
67092 208264
830885 283024
427428 359648
5048 467340
195502 356736
895450 249407
985223 359642
642392 683685
556952 337177
533479 834718
460880 702549
433754 30553
955590 200921
584999 518574
198156 154147
206699 169934
633077 913319
828292 779152
890756 856723
444085 418270
652072 992158
426215 799592
690081 518798
201480 375415
314508 227605
143960 820039
118002 811470
224018 250287
598976 206391
225467 198804
717198 116668
997259 352393
712638 818083
131676 210906
383810 396219
353118 896286
485194 400358
806198 163007
15567 433671
148386 967346
446316 580350
27204 594114
962175 874819
868557 670686
629829 841287
304278 233570
290005 996776
662904 244381
404772 770497
140015 733943
114223 330379
733011 634805
867340 708252
458797 232647
393259 201594
830183 862386
940380 757162
862867 780482
749133 547921
287328 124250
