1 10 20
100 200 125
201 210 89
900 1000 174
9 14 20
1 9 20
200 100 125
23 23 16
751 1501 182
751 2250 183
3001 3752 238
3002 3752 238
3750 3751 176
522751 180717 470
892524 136433 525
928972 448978 525
279526 611794 470
706438 103269 509
1 999999 525
999752 999999 259
274704 585591 470
618146 560828 447
432397 130168 449
578711 692336 509
723986 95912 509
340744 34983 443
659113 903897 525
699662 606272 509
873867 491513 525
302276 280811 389
19086 301566 443
879177 944086 507
1642 806877 509
973260 572628 525
77836 949643 525
574945 472670 470
787556 374554 509
381971 710710 509
362048 980817 525
166668 470835 449
600166 53188 470
401876 420665 449
304465 332197 384
574780 977679 525
890191 653661 525
340861 74287 443
537158 810251 509
101446 767862 509
66872 974008 525
145768 551933 470
389391 322534 441
561938 613230 434
8100 843014 525
945804 544558 525
882823 107851 525
195827 869111 525
431285 34869 449
353079 912939 525
950501 65077 525
357499 376699 423
392931 489494 449
330789 158129 443
162769 654589 509
376702 657064 509
984632 973312 427
752584 836976 468
988831 393924 525
879529 203936 525
599003 240513 470
778593 398381 509
105864 441914 449
248596 344674 407
292879 971701 525
772748 919380 525
468775 526138 470
471912 583226 470
436295 988246 525
482968 700075 509
297712 433846 449
2432 739514 509
541098 949614 525
420696 890899 525
575796 653952 509
86797 556893 470
259198 623261 470
683299 121721 509
284161 126 443
361705 594622 470
814124 262222 509
937217 959997 507
35086 203544 383
224012 433520 449
319111 448162 449
895781 835587 525
236642 487193 449
223409 758368 509
519494 962627 525
38128 384757 443
518984 326937 470
856381 916860 476
435862 489260 444
793922 773593 437
866063 642407 525
490285 853046 525
464576 997152 525
309499 216535 443
414570 851089 525
854721 199770 525
710825 263310 509
274704 805574 509
742458 470965 509
914763 208110 525
781661 200214 509
108012 972864 525
294587 650342 509
96892 405941 443
543772 666695 509
605525 162219 470
205607 630027 509
97544 124188 354
358013 691809 509
613508 866729 525
481954 646984 509
67040 663865 509
328166 88532 443
814963 814181 313
203726 67579 383
313269 390647 441
719535 58432 509
809963 53796 509
529499 996837 525
490091 100276 449
945340 628797 525
650550 390265 509
658730 817341 504
842455 14072 525
777477 607416 509
799689 608620 509
8185 12500 268
45269 14743 324
237921 271469 407
85692 60100 351
458227 903882 525
142618 141095 375
614085 455709 470
795784 206004 509
151122 399855 443
801976 518411 509
925212 191942 525
300407 505159 449
801292 386903 509
645822 391191 509
878749 440019 525
570591 384078 470
131054 228702 386
702454 881959 525
377325 508108 449
2048 574880 470
866430 176362 525
158283 369834 443
716529 296099 509
825623 946739 525
677209 235828 509
715785 310796 509
155580 683211 509
495813 631603 509
571290 300710 470
863481 280095 525
539442 537030 377
450444 774633 509
874763 378704 525
344421 102857 443
405778 50537 443
207498 78742 383
896033 344145 525
255766 246558 363
207934 838897 525
460327 146311 449
531007 925060 525
553640 316369 470
663095 552339 509
35889 524240 470
946846 799858 525
915059 925950 445
270509 138312 443
344009 232857 407
842434 371423 525
752163 260191 509
787155 726866 468
576302 545013 452
278804 646587 509
546333 622604 452
589966 302169 470
867656 891247 445
905538 688050 525
712018 412995 509
120781 423489 449
281786 45456 443
345988 231942 441
366970 396970 436
737654 20569 509
259614 950972 525
495906 72095 449
993446 707112 525
540890 182197 470
301137 784791 509
118992 628576 509
944653 752067 525
24147 641640 509
322327 840760 525
233370 482309 449
802408 242498 509
723228 78273 509
336820 817987 509
270847 472718 449
769480 275914 509
834610 875426 525
154696 130651 375
649345 200371 509
857542 507101 525
728570 128673 509
482867 210913 449
888244 627987 525
61147 244872 443
167880 741966 509
927090 311524 525
670721 406118 509
760249 467324 509
734527 12466 509
994052 433695 525
436169 145925 449
730354 957613 525
665736 271157 509
272314 856881 525
102319 247653 443
410694 831675 509
820906 740705 468
54730 858491 525
55791 514120 470
855096 263545 525
999175 318694 525
126997 546911 470
798932 829141 450
277516 10083 443
919226 411952 525
491762 836291 509
995104 417346 525
988869 325398 525
533297 133608 470
857437 863854 370
181026 749431 509
346125 242593 441
348062 124900 443
560802 913476 525
356273 562463 470
732831 705759 411
470576 459195 444
575737 897763 525
460392 129072 449
953 46467 324
774859 680762 504
50555 88620 351
594355 412835 470
462871 365815 449
104373 804411 509
217972 339865 443
751914 550074 509
562785 158775 470
777052 622884 509
50902 417304 449
